{
  "fiveSyllables1": [
    "flowers look pretty",
    "my uncle is nice",
    "love is beautiful",
    "a nude fat woman",
    "floating in the sky",
    "love is like winter",
    "i really like cats",
    "the peaceful garden",
    "guess what i forgot",
    "coffee smells so good",
    "birds sing in the sky",
    "pirates sail the ship",
    "bells are ringing loud",
    "raising through a field",
    "listening to song",
    "writing an essay"

  ],

  "sevenSyllables": [
    "under the piled-up snowballs",
    "do you also like dresses",
    "in the little, nice forrest",
    "i don't like poetry, but",
    "stands over a kitchen strove",
    "so hot i am melting",
    "poems don't make any sence",
    "i like the colour yellow",
    "lillipops are wimsickle",
    "bees are making nice honey",
    "kids are playing with their friends",
    "dinos are sadly extinct",
    "plants need water to survive",
    "newspaper on a sunday",
    "drinking wine with good old friends",
    "walking through the summer rain",
    "baking bred like a baker",
    "watch out, the oven is hot",
    "a painter paints two women"


  ],

  "fiveSyllables2": [
    "remember sunscreen",
    "flies are annoying",
    "tasting applesauce",
    "the sea welcomes me",
    "flowers everywhere",
    "coughs everywhere",
    "do you like the rain",
    "do you like the sun",
    "count on your fingers",
    "walking in the sun",
    "put a ring on it",
    "dancing with my friends",
    "a glass bowl with fish",
    "don’t crumb in my bed",
    "smokey eyes gone wrong",
    "a wine drinking dog"

  ]
}
